<svg width="16" height="16" viewBox="0 0 16 16" fill="none" xmlns="http://www.w3.org/2000/svg">
  <path d="M11 4L15 8M15 8L11 12M15 8L4.5 8" stroke="#333333" stroke-linejoin="round"/>
  <path d="M6.5 1H3C1.89543 1 1 1.89543 1 3V13C1 14.1046 1.89543 15 3 15H6.5" stroke="#333333" stroke-linejoin="round"/>
</svg>
